<svg xmlns="http://www.w3.org/2000/svg" width="128" height="131" viewBox="0 0 128 131">
    <defs>
        <linearGradient id="a" x1="0%" y1="51.565%" y2="51.565%">
            <stop offset="0%" stop-color="#4395C0"/>
            <stop offset="100%" stop-color="#205C8C"/>
        </linearGradient>
    </defs>
    <g fill="none" fill-rule="evenodd">
        <path fill="url(#a)" d="M60.544 3.22c12.004 9.076 9.285 10.449 21.765 14.458 10.128 3.254 33.716-4.98 34.864 15.045.757 13.213-2.095 26.62-.147 39.705 1.61 10.812 22.845 28.83 1.56 37.6-13.014 5.364-23.962-1.634-34.365 3.85-19.446 10.249-38.971 30.092-63.837 3.129C-4.483 90.044-.98 63.902 2.3 43.982 5.583 24.062 42.066-10.75 60.544 3.22z" opacity=".1" transform="matrix(-1 0 0 1 128 0)"/>
        <path fill="#0059A3" fill-rule="nonzero" d="M88.653 87.124l-6.306-8.092a9.126 9.126 0 0 0 4.989-3.687c1.485-2.563.813-5.69.163-8.71a23.753 23.753 0 0 1-.701-4.738c.073-1.6.308-3.19.701-4.743.646-3.022 1.322-6.147-.163-8.706-1.538-2.652-4.634-3.634-7.63-4.581a22.215 22.215 0 0 1-4.307-1.685 21.045 21.045 0 0 1-3.452-2.793C69.725 37.331 67.207 35 64 35c-3.206 0-5.725 2.33-7.948 4.388a21.05 21.05 0 0 1-3.451 2.794 22.21 22.21 0 0 1-4.307 1.68c-2.995.948-6.09 1.93-7.629 4.582-1.485 2.563-.813 5.69-.163 8.71.392 1.554.627 3.142.7 4.743-.073 1.6-.308 3.189-.701 4.742-.646 3.022-1.322 6.148.163 8.706a9.126 9.126 0 0 0 4.994 3.686l-6.31 8.092a1.033 1.033 0 0 0 .946 1.662l7.41-.924 1.829 6.389a1.036 1.036 0 0 0 1.814.35l6.618-8.497A9.59 9.59 0 0 0 64 88.793a9.59 9.59 0 0 0 6.035-2.69l6.618 8.495a1.037 1.037 0 0 0 1.814-.348l1.83-6.388 7.409.924a1.036 1.036 0 0 0 .947-1.662zm-37.69 4.598l-1.511-5.282a1.036 1.036 0 0 0-1.125-.742l-5.803.724 5.201-6.674.573.183a22.21 22.21 0 0 1 4.303 1.68 21.045 21.045 0 0 1 3.452 2.793l.356.329-5.445 6.989zM64 86.724c-2.394 0-4.407-1.862-6.54-3.836a22.835 22.835 0 0 0-3.823-3.069 24.052 24.052 0 0 0-4.718-1.862c-2.739-.868-5.326-1.687-6.462-3.647-1.084-1.871-.524-4.479.07-7.241.427-1.694.678-3.427.748-5.172a25.282 25.282 0 0 0-.748-5.173c-.593-2.76-1.153-5.369-.069-7.241 1.14-1.96 3.723-2.779 6.462-3.647a24.059 24.059 0 0 0 4.717-1.862 22.834 22.834 0 0 0 3.822-3.07c2.134-1.973 4.147-3.835 6.541-3.835s4.407 1.862 6.54 3.836a22.835 22.835 0 0 0 3.823 3.07 24.052 24.052 0 0 0 4.718 1.861c2.739.868 5.326 1.687 6.462 3.647 1.084 1.871.524 4.48-.07 7.241a25.292 25.292 0 0 0-.748 5.173c.07 1.745.32 3.478.748 5.172.593 2.761 1.153 5.369.069 7.241-1.14 1.96-3.723 2.779-6.462 3.647a24.059 24.059 0 0 0-4.717 1.862 22.834 22.834 0 0 0-3.822 3.07c-2.134 1.973-4.147 3.835-6.541 3.835zm15.678-1.026a1.036 1.036 0 0 0-1.125.742l-1.517 5.282-5.444-6.988.356-.33a21.05 21.05 0 0 1 3.451-2.793 22.21 22.21 0 0 1 4.307-1.68l.573-.183 5.202 6.674-5.803-.724z"/>
        <path fill="#F8931F" d="M50.964 91.722l-1.512-5.282a1.036 1.036 0 0 0-1.125-.742l-5.803.724 5.201-6.674.573.183a22.21 22.21 0 0 1 4.303 1.68 21.045 21.045 0 0 1 3.452 2.793l.356.329-5.445 6.989zM79.678 85.698a1.036 1.036 0 0 0-1.125.742l-1.517 5.282-5.444-6.988.356-.33a21.05 21.05 0 0 1 3.451-2.793 22.21 22.21 0 0 1 4.307-1.68l.573-.183 5.202 6.674-5.803-.724z"/>
        <path fill="#FFF" d="M64 86.724c-2.394 0-4.407-1.862-6.54-3.836a22.835 22.835 0 0 0-3.823-3.069 24.052 24.052 0 0 0-4.718-1.862c-2.739-.868-5.326-1.687-6.462-3.647-1.084-1.871-.524-4.479.07-7.241.427-1.694.678-3.427.748-5.172a25.282 25.282 0 0 0-.748-5.173c-.593-2.76-1.153-5.369-.069-7.241 1.14-1.96 3.723-2.779 6.462-3.647a24.059 24.059 0 0 0 4.717-1.862 22.834 22.834 0 0 0 3.822-3.07c2.134-1.973 4.147-3.835 6.541-3.835s4.407 1.862 6.54 3.836a22.835 22.835 0 0 0 3.823 3.07 24.052 24.052 0 0 0 4.718 1.861c2.739.868 5.326 1.687 6.462 3.647 1.084 1.871.524 4.48-.07 7.241a25.292 25.292 0 0 0-.748 5.173c.07 1.745.32 3.478.748 5.172.593 2.761 1.153 5.369.069 7.241-1.14 1.96-3.723 2.779-6.462 3.647a24.059 24.059 0 0 0-4.717 1.862 22.834 22.834 0 0 0-3.822 3.07c-2.134 1.973-4.147 3.835-6.541 3.835z"/>
        <path fill="#0059A3" fill-rule="nonzero" d="M64 43.276c-10.302 0-18.653 8.337-18.653 18.62 0 10.284 8.351 18.621 18.653 18.621 10.302 0 18.653-8.337 18.653-18.62-.012-10.28-8.356-18.61-18.653-18.621zm0 35.172c-9.157 0-16.58-7.41-16.58-16.551 0-9.142 7.423-16.552 16.58-16.552 9.157 0 16.58 7.41 16.58 16.552-.01 9.136-7.427 16.54-16.58 16.551z"/>
        <path fill="#0059A3" fill-rule="nonzero" d="M75.956 57.576a2.073 2.073 0 0 0-1.674-.852h-6.344l-1.97-6.028a2.073 2.073 0 0 0-3.937 0l-1.964 6.028h-6.349a2.068 2.068 0 1 0-1.22 3.742l5.135 3.724-1.961 6.028a2.068 2.068 0 0 0 1.33 2.607 2.076 2.076 0 0 0 1.86-.294L64 68.808l5.137 3.724a2.046 2.046 0 0 0 2.437 0 2.037 2.037 0 0 0 .752-2.313l-1.961-6.029 5.136-3.724a2.067 2.067 0 0 0 .455-2.89zm-7.42 5.383a1.034 1.034 0 0 0-.375 1.158l2.194 6.742-5.746-4.167a1.038 1.038 0 0 0-1.217 0l-5.746 4.167 2.193-6.742a1.034 1.034 0 0 0-.376-1.157l-5.745-4.167h7.102c.449 0 .846-.289.985-.715L64 51.336l2.195 6.741c.139.426.536.715.985.715l7.102.001-5.745 4.166z"/>
        <path fill="#5398C3" d="M68.537 62.959a1.034 1.034 0 0 0-.376 1.158l2.194 6.742-5.746-4.167a1.038 1.038 0 0 0-1.217 0l-5.746 4.167 2.193-6.742a1.034 1.034 0 0 0-.376-1.157l-5.745-4.167h7.102c.449 0 .846-.289.985-.715L64 51.336l2.195 6.741c.139.426.536.715.985.715l7.102.001-5.745 4.166z"/>
    </g>
</svg>
